<?xml version="1.0"?>
<svg xmlns="http://www.w3.org/2000/svg" xmlns:xlink="http://www.w3.org/1999/xlink" version="1.1" id="Capa_1" x="0px" y="0px" viewBox="0 0 391.837 391.837" style="enable-background:new 0 0 391.837 391.837;" xml:space="preserve" width="512px" height="512px" class=""><g><g>
	<path d="M285.257,35.528c58.743,0.286,106.294,47.836,106.58,106.58   c0,107.624-195.918,214.204-195.918,214.204S0,248.165,0,142.108c0-58.862,47.717-106.58,106.58-106.58l0,0   c36.032-0.281,69.718,17.842,89.339,48.065C215.674,53.517,249.273,35.441,285.257,35.528z" data-original="#D7443E" class="active-path" data-old_color="#D7443E" fill="#FF8686"/>
</g></g> </svg>
